…
Consider world mean temperatures by year:

``` r
my_url="http://www.utsc.utoronto.ca/~butler/d29/temperature.csv"
temp=read_csv(my_url)
#> New names:
#> Rows: 131 Columns: 4
#> ── Column specification
#> ──────────────────────────────────────────────────────── Delimiter: "," dbl
#> (3): ...1, temperature, year date (1): Year
#> ℹ Use `spec()` to retrieve the full column specification for this data. ℹ
#> Specify the column types or set `show_col_types = FALSE` to quiet this message.
#> • `` -> `...1`
temp
#> # A tibble: 131 × 4
#>     ...1 Year       temperature  year
#>    <dbl> <date>           <dbl> <dbl>
#>  1     1 1880-12-31        13.7  1880
#>  2     2 1881-12-31        13.8  1881
#>  3     3 1882-12-31        13.7  1882
#>  4     4 1883-12-31        13.7  1883
#>  5     5 1884-12-31        13.7  1884
#>  6     6 1885-12-31        13.7  1885
#>  7     7 1886-12-31        13.7  1886
#>  8     8 1887-12-31        13.6  1887
#>  9     9 1888-12-31        13.7  1888
#> 10    10 1889-12-31        13.8  1889
#> # ℹ 121 more rows
…
