Mann-Kendall correlation and Theil-Sen slope for possibly autocorrelated time series • mkac
…
Consider world mean temperatures by year:

my_url="http://www.utsc.utoronto.ca/~butler/d29/temperature.csv"
temp=read_csv(my_url)
#> Warning: Missing column names filled in: 'X1' [1]
#> Parsed with column specification:
#> cols(
#>   X1 = col_double(),
#>   Year = col_date(format = ""),
#>   temperature = col_double(),
#>   year = col_double()
#> )
temp
#> # A tibble: 131 x 4
#>       X1 Year       temperature  year
#>    <dbl> <date>           <dbl> <dbl>
#>  1     1 1880-12-31        13.7  1880
#>  2     2 1881-12-31        13.8  1881
#>  3     3 1882-12-31        13.7  1882
#>  4     4 1883-12-31        13.7  1883
#>  5     5 1884-12-31        13.7  1884
#>  6     6 1885-12-31        13.7  1885
#>  7     7 1886-12-31        13.7  1886
#>  8     8 1887-12-31        13.6  1887
#>  9     9 1888-12-31        13.7  1888
#> 10    10 1889-12-31        13.8  1889
#> # … with 121 more rows
…
